# Blender v2.73 (sub 0) OBJ File: 'terrain_modified.blend'
# www.blender.org
mtllib terrain_modified.mtl
o Plane
v 10.025042 1.691854 -9.073029
v -10.591833 -0.600972 -9.073029
v 8.106227 -2.891738 12.354716
v -10.983339 0.870778 10.866073
v -0.637915 4.550256 -9.073029
v -10.591833 -3.031093 -1.149284
v -1.682015 1.342078 11.372802
v -0.283396 1.501172 0.055116
v 10.025042 -3.007344 -5.111156
v -5.437614 1.443425 -9.073029
v -10.692215 1.578796 7.233304
v 2.930391 1.558480 11.669420
v 8.574957 -2.670729 8.472354
v 4.870823 3.630426 -9.073029
v -10.591833 1.184326 -5.111156
v -6.294422 1.988030 11.076184
v -1.454015 -2.661868 7.827402
v -0.283396 2.233672 -5.111156
v -5.437614 1.233950 -5.111156
v 4.870823 3.182140 -5.111156
v 3.158391 0.252015 8.124021
v -6.066422 1.054259 7.530784
v 10.025042 2.543526 -7.092092
v -8.014724 1.587004 -9.073029
v -10.835876 1.515660 9.004097
v 5.404816 1.346804 11.842568
v 8.665131 -2.866940 6.698122
v 2.293714 4.509723 -9.073029
v -10.591833 1.528203 -3.130220
v -3.988219 1.282611 11.224493
v -1.568015 1.190258 9.600101
v -0.283396 -2.400912 -3.130220
v -2.860505 -2.862469 0.055116
v -2.860505 1.277069 -9.073029
v -10.699405 1.546889 5.404949
v 0.624188 1.271705 11.521111
v 8.459026 -2.782115 10.248977
v 7.447932 3.460159 -9.073029
v -10.591833 1.411061 -7.092092
v -8.600626 1.519855 10.927875
v -0.283396 -2.838751 2.036051
v -0.283396 2.496520 -7.092092
v 2.293714 -2.897127 0.055116
v -8.014724 -2.705652 -1.149284
v -5.437614 -2.576035 -3.130220
v -5.437614 1.476699 -7.092092
v -2.860505 1.260731 -5.111156
v -8.014724 1.594440 -5.111156
v 4.870823 -2.802959 -3.130220
v 4.870823 3.819423 -7.092092
v 7.668036 1.862930 -5.111156
v 2.293714 2.878673 -5.111156
v 3.044392 1.538096 9.896721
v 3.272392 -2.407423 6.351321
v 5.877194 1.356905 8.298863
v 0.852189 -2.668630 7.975711
v -6.180422 1.581060 9.303483
v -5.952421 -2.765230 5.758084
v -3.760218 -2.792274 7.679093
v -8.372625 1.700146 7.382475
v -8.258625 1.573013 5.609775
v -2.860505 -2.865545 2.036051
v -3.874218 1.177706 9.451793
v 2.293714 -2.865239 2.036051
v 5.654633 -2.945065 6.504520
v 5.704737 1.600039 10.071101
v 2.293714 3.461264 -7.092092
v 7.447932 3.931602 -7.092092
v 7.447932 -2.910828 -3.130220
v -8.014724 1.602273 -7.092092
v -2.860505 1.386657 -7.092092
v -2.860505 -2.309550 -3.130220
v -8.014724 1.551223 -3.130220
v 2.293714 -2.284445 -3.130220
v 0.738188 1.122931 9.748411
v -8.486626 1.637218 9.155174
v 10.025042 2.549959 -8.082560
v -9.303278 0.368723 -9.073029
v -10.798694 1.223833 9.896503
v 6.758541 0.554328 12.152048
v 8.206008 -2.980896 5.778581
v 1.005159 7.052283 -9.073029
v -10.591833 1.501175 -2.139752
v -2.835117 1.218851 11.298648
v -1.625015 1.233349 10.486452
v 1.156870 1.500230 -1.015007
v -1.571951 1.498846 0.055116
v 10.025042 -3.031093 -4.120688
v -4.149060 1.168485 -9.073029
v -10.622583 1.573312 6.347767
v 1.777290 1.446947 11.595266
v 8.530339 -2.701781 9.359650
v 6.159378 3.851604 -9.073029
v -10.591833 0.830240 -6.101624
v -7.447524 2.949866 11.002029
v -0.283396 2.310268 -6.101624
v -6.081892 -2.458468 -1.644518
v -5.437614 1.283509 -6.101624
v -1.571951 1.655711 -5.111156
v -6.726169 1.507595 -5.111156
v 4.870823 3.803684 -6.101624
v 8.736486 1.261820 -5.111156
v 3.582268 3.491732 -5.111156
v 2.987391 1.631728 10.783071
v 3.215392 -2.389126 7.237671
v 7.419003 1.057834 8.398015
v 2.005290 -2.678339 8.049866
v -6.237422 1.672486 10.189834
v -6.009421 -2.887588 6.644433
v -2.607117 -2.668005 7.753247
v -7.219523 1.460802 7.456630
v 10.025042 2.021171 -6.101624
v -6.726169 1.597998 -9.073029
v -10.769389 1.447563 8.118358
v 4.107121 1.594507 11.746658
v 8.627242 -2.671607 7.585700
v 3.582268 4.921743 -9.073029
v -10.591833 1.324387 -4.120688
v -5.141320 1.522328 11.150338
v -1.511015 1.582088 8.713753
v -0.283396 2.073785 -4.120688
v -1.571951 1.744099 -9.073029
v -10.507828 1.331840 4.575116
v -0.528914 1.287178 11.446957
v 8.390940 -2.822464 11.136663
v 8.736486 3.184937 -9.073029
v -10.591833 0.803802 -8.082560
v -9.813093 1.220955 10.849902
v -0.283396 1.504324 1.045583
v -0.283396 3.148963 -8.082560
v 1.005159 1.501245 0.055116
v -9.303278 -2.959611 -1.149284
v -5.437614 0.621828 -4.120688
v -5.437614 1.485285 -8.082560
v -4.149060 1.115938 -5.111156
v -9.303278 1.493777 -5.111156
v 4.870823 2.263744 -4.120688
v 4.870823 4.264643 -8.082560
v 6.159378 3.572426 -5.111156
v 1.005159 2.850712 -5.111156
v 3.101392 1.386873 9.010370
v 4.383959 1.370968 8.202835
v -0.300913 -2.626752 7.901557
v -6.123422 1.598553 8.417134
v -4.913320 -0.192162 7.604939
v -9.525727 1.699898 7.308320
v -8.315624 1.530130 6.496124
v -8.083238 1.449823 4.723425
v -7.106589 -2.809738 5.683861
v -9.411727 1.521797 5.535621
v -3.703218 -2.487470 6.792744
v -2.860505 -2.857538 1.045583
v -1.571951 -2.874497 2.036051
v -3.931219 1.258510 10.338142
v -3.817218 1.025119 8.565443
v -2.721117 1.175582 9.525948
v -5.027320 1.489998 9.377638
v 2.293714 -2.827010 1.045583
v 1.005159 -2.935628 2.036051
v 5.916643 0.724774 7.411385
v 5.669833 -2.341268 5.615482
v 7.435752 0.795957 6.619062
v 4.427301 -2.551250 6.425592
v 5.618894 1.584763 10.962586
v 5.799355 1.459541 9.184166
v 7.470524 1.006159 10.187761
v 4.273910 1.534378 9.975801
v 2.293714 3.212981 -6.101624
v 2.293714 3.786333 -8.082560
v 3.582268 4.630482 -7.092092
v 1.005159 3.113924 -7.092092
v 7.447932 4.115240 -6.101624
v 7.447932 4.443768 -8.082560
v 8.736486 4.644332 -7.092092
v 6.159378 3.989497 -7.092092
v 7.447932 0.310600 -4.120688
v 8.736486 -2.988267 -3.130220
v 6.159378 -2.858185 -3.130220
v -8.014724 1.622549 -6.101624
v -8.014724 1.637415 -8.082560
v -6.726169 1.754722 -7.092092
v -9.303278 1.692122 -7.092092
v -2.860505 1.277071 -6.101624
v -2.860505 1.308543 -8.082560
v -1.571951 1.830354 -7.092092
v -4.149060 1.401135 -7.092092
v -2.708794 -2.791696 -1.015007
v -2.860505 0.384377 -4.120688
v -1.571951 -2.299095 -3.130220
v -4.149060 -2.451252 -3.130220
v -8.014724 1.512319 -2.139752
v -8.014724 1.613850 -4.120688
v -6.726169 1.390713 -3.130220
v -9.303278 1.553503 -3.130220
v -0.131685 1.500475 -1.015007
v 2.293714 2.825599 -4.120688
v 3.582268 -2.537748 -3.130220
v 1.005159 -2.362177 -3.130220
v 0.681188 1.131697 10.634761
v 0.795189 0.862850 8.862062
v 1.891290 1.311297 9.822566
v -0.414913 1.050241 9.674256
v -8.543626 1.545965 10.041525
v -8.429626 1.678894 8.268824
v -7.333523 1.636786 9.229329
v -9.643114 1.439040 9.080802
v -9.584465 1.585060 8.194558
v -7.276523 1.711157 8.342979
v -7.390523 1.575369 10.115679
v -0.357913 1.174819 8.787907
v 1.948290 1.181929 8.936216
v 1.834290 1.447643 10.708916
v 1.005159 2.737390 -4.120688
v 3.582268 3.095394 -4.120688
v -9.303278 1.540895 -4.120688
v -6.726169 1.417616 -4.120688
v -6.726169 -0.164354 -2.139752
v -4.149060 0.084370 -4.120688
v -1.571951 1.467410 -4.120688
v -1.420239 1.500879 -1.015007
v -4.149060 1.057686 -8.082560
v -1.571951 1.891352 -8.082560
v -1.571951 1.723137 -6.101624
v -9.303278 1.472946 -8.082560
v -6.726169 1.731012 -8.082560
v -6.726169 1.515450 -6.101624
v 6.159378 2.367125 -4.120688
v 8.736486 -3.031093 -4.120688
v 6.159378 6.192726 -8.082560
v 8.736486 5.552559 -8.082560
v 8.736486 2.731296 -6.101624
v 1.005159 5.249062 -8.082560
v 3.582268 3.382394 -8.082560
v 3.582268 3.425060 -6.101624
v 4.331191 1.445510 9.089458
v 8.120483 0.612893 9.297297
v 7.939419 -0.247167 11.067954
v 6.961827 -2.604383 5.698569
v 7.436061 1.041054 7.509097
v 1.005159 1.503489 1.045583
v 2.062290 -2.399470 7.163515
v -4.970320 1.427525 8.491289
v -2.664117 1.069008 8.639598
v -2.778117 1.108355 10.412297
v -1.571951 1.504658 1.045583
v -9.354727 1.510204 4.649271
v -7.029806 -2.630783 4.798784
v -7.162523 1.237761 6.570279
v -9.468727 1.630313 6.421970
v -4.856319 -2.759777 6.718589
v -5.084320 1.603922 10.263988
v 4.371696 -0.427741 7.312032
v 4.205290 1.511089 10.862252
v 1.005159 2.955043 -6.101624
v 6.159378 5.159886 -6.101624
v -9.303278 1.551406 -6.101624
v -4.149060 1.018664 -6.101624
v -9.303278 1.512758 -2.139752
v 2.445425 -2.822225 -1.015007
v -0.471914 1.200361 10.560607
v -9.858872 1.439167 9.956943
v -10.836376 0.379900 11.738973
v -1.743552 1.415759 12.323524
v 2.874347 1.608172 12.627300
v -6.355959 2.683908 12.026906
v 5.309823 1.175746 12.754722
v -4.049756 1.356292 12.175215
v 0.562651 1.358132 12.471834
v -8.722466 1.353222 11.873432
v 6.203525 0.267136 12.978535
v -2.896654 1.292532 12.249371
v 1.728258 1.520628 12.554121
v -7.509061 4.443432 11.952751
v 4.147073 1.819286 12.699368
v -5.202857 1.596009 12.101061
v -0.590450 1.360859 12.397679
v -9.843425 0.687430 11.862116
v -1.728981 1.536767 13.278372
v 2.956358 1.515554 13.756798
v -6.341388 3.454673 12.981753
v -4.035185 1.477300 13.130063
v 0.577362 2.784134 13.426773
v -8.633939 1.058931 12.791989
v -2.882083 1.413540 13.204217
v 2.067674 1.901899 13.720872
v -7.494490 3.012859 12.907598
v 4.195743 0.793077 13.603502
v -5.188286 2.353008 13.055908
v -0.575880 1.745267 13.352528
v -1.668755 1.603084 14.180045
v 2.827930 0.960194 14.698974
v -6.281161 4.796033 13.883427
v -3.974958 1.541121 14.031735
v 0.637448 3.504140 14.328354
v -8.300131 0.643152 13.554287
v -2.821857 1.478612 14.105890
v 1.810277 2.553486 14.415330
v -7.434264 2.536215 13.809272
v -5.128059 2.849555 13.957582
v -0.515653 2.461688 14.254200
v -11.833632 0.306721 10.786591
v -11.696697 1.557465 7.234857
v -11.884933 1.456929 9.002782
v -11.261971 1.205329 5.414677
v -11.964700 1.225395 9.835296
v -11.610300 1.589583 6.350397
v -11.801431 1.513702 8.118136
v -0.651982 0.910624 15.494173
v -5.282896 1.639466 14.992914
v -7.387297 0.699623 14.799145
v 2.719264 0.202526 15.764997
v -12.840142 0.835527 7.089575
v -12.782012 1.097754 8.844198
v -12.123271 0.692584 5.513555
v -12.869835 0.695062 9.673397
v -12.632129 0.775200 6.241621
v -13.087756 0.974508 7.999370
v 1.593575 0.598526 15.686134
v -2.874026 0.816978 15.277199
v -8.074567 0.341348 14.568144
v -13.247088 -2.781423 6.100246
v -11.293199 -2.418888 4.473862
v -11.778464 -2.931519 4.854528
v -13.538086 -2.753360 6.914176
v -13.896414 -2.687662 7.852555
v -13.901629 -2.776061 8.612538
v -13.657743 -2.722174 9.782820
v -1.776581 1.245995 15.375217
v 0.579585 1.591214 15.606604
v -4.074340 0.820729 15.158186
v -6.377889 2.220784 14.878382
v -8.825110 -2.868180 14.713160
v -12.931139 -2.779351 10.448577
v 6.422608 -2.888584 13.811205
v -12.406864 -2.892236 10.910295
v -7.291638 -2.872683 15.818188
v -11.937267 -2.802999 11.272121
v -9.204591 -2.892289 14.213943
v -11.641581 -2.813060 12.634209
v -9.562346 -2.870944 13.607075
v -10.409026 -2.770638 12.344165
v -10.087047 -2.823818 13.414863
v -6.425924 -2.747064 15.902506
v -5.389041 -2.716390 16.057419
v 5.759959 -2.867388 14.086201
v -4.125030 -2.882079 16.313805
v 5.135612 -2.828207 14.688779
v -2.877504 -2.826418 16.477678
v -1.835716 -2.742957 16.599560
v -0.738734 -2.742918 16.763376
v 4.489549 -2.907959 15.041842
v 0.720989 -2.741463 16.923704
v 4.163734 -2.748830 15.431263
v 1.827524 -2.710740 17.023508
v 3.425457 -2.838196 16.227037
v 6.900237 -2.783622 13.303457
v 1.053651 -2.764983 -1.936546
v -0.201048 -2.868465 -1.936546
v -1.455748 -2.750686 -1.987329
v -2.682534 -2.914465 -2.019182
v 2.340755 -2.883838 -1.943827
v -10.552314 1.496391 3.504845
v -8.043162 1.525493 3.654189
v -9.179352 1.514773 3.563074
v -7.107236 -2.511515 3.714196
v -11.672353 -2.646530 3.553848
v -10.569407 1.453240 2.503926
v -7.908041 1.486760 2.552995
v -9.281004 1.472650 2.507094
v -6.872062 -2.487198 1.962615
v -11.338102 -2.741656 1.948725
v -9.302189 -2.655830 1.932092
v 10.258859 1.064089 -10.244860
v -0.049579 2.217487 -10.244860
v -5.203798 1.143716 -10.244860
v 5.020357 5.068314 -10.244860
v -7.780907 1.473191 -10.244860
v 2.527530 4.643970 -10.244860
v -2.626689 0.978555 -10.244860
v 7.681749 3.164933 -10.244860
v -9.069462 0.850271 -10.244860
v 1.238975 5.184699 -10.244860
v -3.915244 0.869659 -10.244860
v 6.393194 3.557900 -10.244860
v -6.492352 1.454515 -10.244860
v 3.816085 7.260025 -10.244860
v -1.338134 1.448029 -10.244860
v 8.970304 2.788812 -10.244860
v 10.224494 1.254777 -11.634350
v -10.392381 0.905440 -11.634350
v -0.083943 2.212316 -11.634350
v -5.238162 1.282980 -11.634350
v 5.070276 2.986569 -11.634350
v -7.815271 1.435963 -11.634350
v 2.493166 8.764770 -11.634350
v -2.661053 1.349167 -11.634350
v 7.647385 3.123096 -11.634350
v -9.103826 0.974978 -11.634350
v 1.204611 4.843184 -11.634350
v -3.949607 0.863313 -11.634350
v 6.358830 3.561847 -11.634350
v -6.526716 1.443292 -11.634350
v 3.781721 5.711457 -11.634350
v -1.372498 1.443238 -11.634350
v 8.935940 2.762449 -11.634350
v 9.707794 0.740815 -12.568839
v -10.497163 0.976105 -13.206091
v -0.188726 2.304249 -13.206091
v -5.342945 1.116804 -13.206091
v 4.965493 2.997642 -13.206091
v -7.920053 1.280782 -13.206091
v 2.388383 5.282397 -13.206091
v -2.765836 0.953833 -13.206091
v 7.542603 2.977959 -13.206091
v -9.208609 1.021928 -13.206091
v 1.099828 3.107315 -13.206091
v -4.054390 0.847190 -13.206091
v 6.254048 3.303724 -13.206091
v -6.631499 1.426085 -13.206091
v 3.676938 3.518773 -13.206091
v -1.477281 1.837285 -13.206091
v 8.831157 1.867537 -13.206091
v -10.497163 1.020618 -14.463484
v -0.188726 2.432749 -14.463484
v -5.342945 2.512113 -14.463484
v 4.965493 3.042402 -14.463484
v -7.920053 1.236575 -14.463484
v 2.388383 4.003246 -14.463484
v -2.765836 0.960477 -14.463484
v 7.860406 2.980881 -14.463484
v -9.208609 1.145574 -14.463484
v 1.099828 3.268968 -14.463484
v -4.054390 1.067590 -14.463484
v 6.254048 3.236106 -14.463484
v -6.631499 1.554590 -14.463484
v 3.676938 3.645038 -14.463484
v -1.477281 1.536771 -14.463484
v 8.831157 2.664876 -14.463484
v -10.497163 1.296990 -15.720877
v -0.188726 2.562577 -15.720877
v -5.342945 5.405246 -15.720877
v 4.965493 3.110057 -15.720877
v -7.920053 1.084724 -15.720877
v 2.388383 4.160126 -15.720877
v -2.765836 1.964226 -15.720877
v 7.542603 2.980883 -15.720877
v -9.208609 1.289101 -15.720877
v 1.099828 3.420355 -15.720877
v -4.054390 3.357981 -15.720877
v 6.254048 3.361921 -15.720877
v -6.631499 3.133494 -15.720877
v 3.676938 3.772564 -15.720877
v -1.477281 1.559605 -15.720877
v 8.831157 2.682153 -15.720877
v -10.497163 1.342849 -16.978271
v -0.188726 3.733241 -16.978271
v -5.342945 1.905780 -16.978271
v 4.965493 3.164444 -16.978271
v -7.920053 0.754262 -16.978271
v 2.388383 4.274873 -16.978271
v -2.765836 4.242927 -16.978271
v 7.542603 2.988027 -16.978271
v -9.208609 1.220362 -16.978271
v 1.099828 3.534831 -16.978271
v -4.054390 2.538593 -16.978271
v 6.254048 3.358903 -16.978271
v -6.631499 1.128264 -16.978271
v 3.676938 3.862052 -16.978271
v -1.477281 1.765564 -16.978271
v 8.831157 2.682153 -16.978271
v 9.590678 1.320100 -19.032469
v -0.188726 7.408248 -18.340446
v -9.147981 1.294230 -19.282116
v 4.965493 3.244521 -18.340446
v -11.770538 1.404562 -19.221478
v 2.388383 5.080252 -18.340446
v -13.105264 0.964581 -19.282116
v 7.860406 3.010201 -18.340446
v -13.711178 -2.903030 -19.231600
v 1.099828 5.816029 -18.340446
v -14.377720 -2.898731 -16.978271
v 6.254048 3.508555 -18.340446
v -14.377720 -2.895141 -15.720877
v 3.676938 4.504145 -18.340446
v -1.477281 2.011863 -18.340446
v 8.831157 1.359473 -18.340446
v 10.119712 1.447496 -19.807405
v -0.188726 3.052168 -19.807405
v -14.317092 -2.898731 -18.190821
v 4.965493 3.270825 -19.807405
v -13.105264 0.688578 -18.190821
v 2.388383 9.074511 -19.807405
v -11.770538 1.403149 -18.130184
v 7.542603 3.180324 -19.807405
v -9.147981 1.337134 -18.190821
v 1.099828 4.160133 -19.807405
v -7.859426 0.776869 -18.190821
v 6.254048 3.810424 -19.807405
v -10.436535 1.321866 -18.190821
v 3.872206 6.177175 -19.807405
v -1.477281 0.424156 -19.807405
v 8.831157 2.165521 -19.807405
v -11.925836 -3.031093 -1.088648
v -11.925836 -2.931314 -5.050519
v -11.925836 -3.036969 -3.069583
v -11.925836 -2.933197 -7.031456
v -11.925836 -3.152523 -2.079115
v -11.925836 -2.839586 -6.040987
v -11.925836 -2.928886 -4.060051
v -11.925836 -3.090802 -8.021923
v -11.726383 0.084198 -11.573712
v -11.831165 0.780430 -13.145454
v -11.831165 0.851269 -14.402847
v -11.831165 1.266134 -15.660240
v -12.408767 1.521762 -16.261457
v -2.750459 1.312054 -18.399942
v -13.060386 -2.996169 -11.634350
v -13.165169 -2.996169 -13.206091
v -13.165169 -2.996169 -14.463484
v -13.165892 -2.996169 -15.720877
v -13.165892 1.375908 -16.978271
v -10.436535 1.259033 -19.282116
v -7.859426 -0.055228 -19.282116
v 10.119712 1.979696 -20.898846
v -0.188726 1.290947 -20.898846
v 4.965493 2.880610 -20.898846
v 2.388383 5.755914 -20.898846
v 7.542603 3.221623 -20.898846
v 1.099828 3.078205 -20.898846
v 6.254048 3.702915 -20.898846
v 3.676938 4.674075 -20.898846
v -1.477281 0.391567 -20.898846
v 8.831157 2.896409 -20.898846
v 10.119712 2.014574 -21.990286
v -0.188726 1.215230 -21.990286
v 4.965493 1.933031 -21.990286
v 2.388383 2.791154 -21.990286
v 7.542603 3.201479 -21.990286
v 1.099828 2.044522 -21.990286
v 6.254048 2.196209 -21.990286
v 3.676938 2.513906 -21.990286
v 8.831157 2.896558 -21.990286
v 11.079751 1.008532 -19.807405
v 11.079751 1.877042 -20.898846
v 11.079751 1.950465 -21.990286
v 12.140847 1.067589 -19.807405
v 12.140847 1.732355 -20.898846
v 12.140847 1.908698 -21.990286
v 13.302973 -1.388760 -19.807405
v 13.302973 -0.066349 -20.898846
v 13.302973 0.631968 -21.990286
v 10.995110 0.785214 -9.133657
v 10.995110 -3.007344 -5.171785
v 10.995110 2.339115 -7.152721
v 10.995110 2.313857 -8.143188
v 10.995110 0.986698 -6.162253
v 11.185220 0.575202 -9.987036
v 11.904549 0.545736 -9.133657
v 11.904549 -3.007344 -5.171785
v 11.904549 2.280873 -7.152721
v 11.904549 2.259139 -8.143188
v 11.904549 0.646690 -6.162253
v 12.874617 0.128084 -9.133657
v 12.874617 -3.036878 -5.645972
v 12.874617 0.958631 -7.152721
v 12.874617 0.943149 -8.143188
v 12.874617 0.749291 -6.162253
v 10.077614 1.940396 -23.000635
v 7.500505 3.131778 -23.000635
v 6.211950 2.267821 -23.000635
v 8.789060 2.846456 -23.000635
v 11.037653 1.816900 -23.000635
v 12.098749 1.908644 -23.000635
v 13.260875 0.084906 -23.000635
v 10.077614 2.014332 -23.968887
v 7.500505 1.920309 -23.968887
v 6.211950 0.396292 -23.968887
v 8.789060 1.641381 -23.968887
v 11.037653 1.942014 -23.968887
v 12.098749 1.891896 -23.968887
v 13.260875 0.631968 -23.968887
v 10.035515 2.009591 -24.979237
v 8.746962 1.641381 -24.979237
v 10.995555 1.906682 -24.979237
v 12.056651 1.711283 -24.979237
v 13.218777 0.271484 -24.979237
v 10.035515 0.819731 -25.947489
v 8.746962 0.235535 -25.947489
v 10.995555 -0.336307 -25.947489
v 12.056651 0.423162 -25.947489
v 13.218777 0.754780 -25.947489
v -5.342945 -2.906658 -17.442455
v -7.720083 -2.963536 -17.251719
v -4.054390 -3.207903 -17.052704
v -6.631499 -2.814314 -17.442455
v -9.147981 -2.912017 -19.843298
v -11.770538 -2.907403 -19.782661
v -1.770012 -2.939244 -18.605110
v -7.429858 -2.923740 -18.089792
v -1.954493 -2.938559 -19.706377
v -3.184216 -2.988912 -18.540432
v -10.436535 -2.947937 -19.843298
v -7.531941 -2.725805 -19.468555
v -0.793450 -2.860262 -21.385023
v -1.954493 -2.909530 -20.797817
v -0.188726 -2.863673 -22.159027
v 4.965493 -3.013938 -22.600895
v 2.388383 -2.815441 -22.600895
v 1.099828 -2.899968 -22.600895
v 5.913438 -2.934795 -22.030649
v 3.676938 -3.036851 -22.600895
v 5.875422 -2.934795 -22.899607
v 7.500505 -2.986894 -24.156530
v 6.211950 -2.934795 -24.156530
v 8.491529 -2.924788 -23.867859
v 8.124144 -2.840453 -24.878208
v 10.035515 -3.057951 -26.281713
v 8.746962 -2.677425 -26.142050
v 10.995555 -2.913908 -26.488169
v 12.056651 -3.079547 -26.281713
v 13.623343 -2.973016 -25.875927
v 10.689399 -2.924949 -10.958006
v 10.224494 -2.924944 -11.592256
v 10.119712 -2.924944 -13.163997
v 8.831157 -2.965025 -13.163997
v 9.956331 -2.965025 -14.421391
v 9.956331 -2.965025 -15.678783
v 9.956331 -2.965025 -16.936176
v 10.119712 -3.119821 -18.298351
v 8.831157 -2.965025 -18.298351
v 10.550689 -3.119821 -19.140324
v 11.079751 -3.119821 -19.492554
v 12.140847 -3.119821 -19.492554
v 13.700043 -3.126733 -19.302233
v 13.571903 -3.120153 -20.856750
v 13.740092 -3.119821 -21.948191
v 11.313350 -3.162066 -9.495473
v 11.228927 -2.924949 -10.263395
v 11.904549 -3.162066 -9.091564
v 12.874617 -3.162066 -9.091564
v 13.253065 -2.789255 -7.110627
v 13.253065 -2.816517 -8.101095
v 13.882037 -3.119821 -22.958542
v 13.697994 -3.119821 -23.926792
v 13.487706 -3.119821 -24.937141
v -4.015331 0.090443 -18.193050
v -3.978799 -3.068727 -18.356760
v -10.598936 -2.973909 -10.913831
v -10.007212 -2.763510 -9.908215
v -9.677732 -2.795992 -10.619451
v -11.351800 -3.106756 -9.034422
v -9.720716 -2.793071 -8.994713
vt 0.431009 0.200048
vt 0.432430 0.259958
vt 0.330072 0.303353
vt 0.374388 0.203326
vt 0.228323 0.198913
vt 0.289025 0.200361
vt 0.324435 0.303009
vt 0.222964 0.255591
vt 0.801059 0.379189
vt 0.802300 0.337078
vt 0.816758 0.342752
vt 0.810751 0.377137
vt 0.790787 0.378658
vt 0.779997 0.333077
vt 0.652301 0.619855
vt 0.618219 0.630216
vt 0.593684 0.609904
vt 0.647876 0.599018
vt 0.444630 0.728141
vt 0.466284 0.729144
vt 0.469617 0.757960
vt 0.442511 0.754854
vt 0.227394 0.700115
vt 0.253764 0.703455
vt 0.249351 0.729534
vt 0.223414 0.726142
vt 0.531528 0.421074
vt 0.523720 0.431077
vt 0.488454 0.413966
vt 0.490495 0.408957
vt 0.900769 0.580517
vt 0.899050 0.555824
vt 0.923686 0.554225
vt 0.925571 0.579777
vt 0.894749 0.483076
vt 0.894870 0.454373
vt 0.918124 0.458651
vt 0.918378 0.482410
vt 0.903359 0.775379
vt 0.904276 0.755908
vt 0.927979 0.753167
vt 0.924554 0.774148
vt 0.898935 0.687767
vt 0.899122 0.659611
vt 0.922409 0.659218
vt 0.922016 0.685973
vt 0.120370 0.689754
vt 0.147840 0.692768
vt 0.144416 0.718676
vt 0.117440 0.715999
vt 0.639164 0.240353
vt 0.672309 0.256504
vt 0.620098 0.263261
vt 0.594701 0.239722
vt 0.332416 0.716614
vt 0.358168 0.722042
vt 0.351966 0.748019
vt 0.325900 0.740671
vt 0.716150 0.337371
vt 0.722413 0.346239
vt 0.692769 0.405659
vt 0.686389 0.373003
vt 0.448223 0.626900
vt 0.473209 0.628340
vt 0.471039 0.653010
vt 0.445827 0.651626
vt 0.397358 0.622367
vt 0.423309 0.625243
vt 0.421165 0.650302
vt 0.395684 0.647830
vt 0.745569 0.346889
vt 0.769762 0.414158
vt 0.753099 0.422380
vt 0.735101 0.350096
vt 0.452917 0.577666
vt 0.478059 0.578391
vt 0.478300 0.602506
vt 0.450618 0.602181
vt 0.330310 0.310062
vt 0.433993 0.355456
vt 0.433381 0.415175
vt 0.373662 0.414568
vt 0.279885 0.707093
vt 0.305617 0.711300
vt 0.300619 0.736120
vt 0.275329 0.732585
vt 0.290885 0.656618
vt 0.315689 0.660788
vt 0.310703 0.686109
vt 0.285088 0.681664
vt 0.342387 0.666856
vt 0.367575 0.670557
vt 0.363136 0.695913
vt 0.337430 0.691517
vt 0.324711 0.309471
vt 0.327509 0.309828
vt 0.322898 0.426007
vt 0.272599 0.412891
vt 0.070906 0.578027
vt 0.105816 0.578003
vt 0.099886 0.608783
vt 0.065109 0.602933
vt 0.686960 0.206688
vt 0.689139 0.224257
vt 0.676702 0.227350
vt 0.640366 0.190107
vt 0.014949 0.681547
vt 0.088860 0.684972
vt 0.086432 0.712067
vt 0.046975 0.716199
vt 0.039956 0.623821
vt 0.096064 0.634262
vt 0.093018 0.659914
vt 0.051017 0.653182
vt 0.128496 0.638477
vt 0.155694 0.641702
vt 0.151668 0.667241
vt 0.124384 0.663939
vt 0.903260 0.734463
vt 0.900450 0.711774
vt 0.923704 0.707805
vt 0.923804 0.731877
vt 0.857278 0.737186
vt 0.853527 0.718358
vt 0.876508 0.715163
vt 0.878781 0.742015
vt 0.835372 0.698969
vt 0.850821 0.669229
vt 0.875291 0.661538
vt 0.874781 0.689678
vt 0.919937 0.818530
vt 0.904064 0.790786
vt 0.948208 0.806728
vt 0.954120 0.825924
vt 0.878049 0.805820
vt 0.871503 0.792270
vt 0.888690 0.789150
vt 0.887998 0.804428
vt 0.869438 0.777895
vt 0.866567 0.759684
vt 0.886864 0.757807
vt 0.888010 0.774670
vt 0.448286 0.186702
vt 0.504737 0.178370
vt 0.449585 0.204814
vt 0.443136 0.195406
vt 0.548386 0.188245
vt 0.551163 0.208772
vt 0.459755 0.232261
vt 0.457227 0.216999
vt 0.897155 0.530919
vt 0.895872 0.506894
vt 0.919295 0.505695
vt 0.920967 0.529116
vt 0.849372 0.532798
vt 0.848287 0.508783
vt 0.872259 0.508038
vt 0.872728 0.531727
vt 0.847456 0.484681
vt 0.844138 0.457189
vt 0.869993 0.461387
vt 0.871129 0.484770
vt 0.899769 0.632075
vt 0.900459 0.605371
vt 0.925491 0.605710
vt 0.923740 0.632306
vt 0.851511 0.633809
vt 0.851142 0.606060
vt 0.875515 0.605945
vt 0.875551 0.632913
vt 0.850012 0.582308
vt 0.850130 0.557155
vt 0.874232 0.556516
vt 0.874981 0.581162
vt 0.173308 0.922505
vt 0.118549 0.922505
vt 0.112101 0.863342
vt 0.166860 0.863342
vt 0.548269 0.309153
vt 0.529252 0.331030
vt 0.474669 0.337037
vt 0.473739 0.318392
vt 0.525674 0.349313
vt 0.536138 0.362832
vt 0.473819 0.376006
vt 0.474438 0.356357
vt 0.516578 0.391571
vt 0.533353 0.407519
vt 0.491499 0.401701
vt 0.489616 0.389233
vt 0.943887 0.527128
vt 0.942095 0.504366
vt 0.964750 0.503446
vt 0.966358 0.525989
vt 0.941144 0.481849
vt 0.940499 0.459026
vt 0.962723 0.458092
vt 0.963496 0.481074
vt 0.570073 0.225069
vt 0.568015 0.245782
vt 0.470019 0.264779
vt 0.463985 0.248247
vt 0.569067 0.265833
vt 0.558351 0.287631
vt 0.471570 0.300422
vt 0.470490 0.282541
vt 0.174060 0.695208
vt 0.201420 0.697185
vt 0.197493 0.723095
vt 0.170874 0.721018
vt 0.181705 0.643841
vt 0.208627 0.644880
vt 0.204695 0.671398
vt 0.178123 0.669384
vt 0.235356 0.647835
vt 0.263109 0.647979
vt 0.258342 0.676724
vt 0.231058 0.673565
vt 0.386077 0.726746
vt 0.413899 0.728165
vt 0.413211 0.755804
vt 0.374418 0.764959
vt 0.392853 0.673498
vt 0.418260 0.675207
vt 0.415822 0.701059
vt 0.389327 0.699206
vt 0.443912 0.676818
vt 0.469792 0.677844
vt 0.468398 0.702705
vt 0.442244 0.702448
vt 0.369300 0.641302
vt 0.674510 0.285480
vt 0.680602 0.297678
vt 0.617940 0.328534
vt 0.615657 0.309869
vt 0.686917 0.309778
vt 0.619733 0.348214
vt 0.669445 0.274422
vt 0.602848 0.292939
vt 0.590979 0.276510
vt 0.944147 0.684861
vt 0.945055 0.706579
vt 0.945094 0.658352
vt 0.945675 0.728726
vt 0.956756 0.753680
vt 0.553621 0.369752
vt 0.547093 0.383012
vt 0.951621 0.554516
vt 0.553165 0.407188
vt 0.960519 0.578346
vt 0.957339 0.601472
vt 0.946982 0.632473
vt 0.327389 0.302915
vt 0.331915 0.193306
vt 0.324261 0.306286
vt 0.214236 0.304430
vt 0.827652 0.606330
vt 0.826828 0.582650
vt 0.826385 0.558064
vt 0.826940 0.684178
vt 0.828352 0.632083
vt 0.823870 0.509754
vt 0.815069 0.473203
vt 0.808073 0.442629
vt 0.825350 0.534012
vt 0.955075 0.774116
vt 0.986469 0.809577
vt 0.439909 0.169478
vt 0.510108 0.137412
vt 0.435119 0.181521
vt 0.534032 0.144061
vt 0.846743 0.802644
vt 0.844530 0.781190
vt 0.842736 0.760594
vt 0.880446 0.847499
vt 0.901340 0.842542
vt 0.855492 0.863862
vt 0.851112 0.822756
vt 0.501339 0.098262
vt 0.532025 0.098543
vt 0.925342 0.842341
vt 0.830695 0.719750
vt 0.826693 0.699286
vt 0.826421 0.736323
vt 0.132716 0.613138
vt 0.173956 0.604505
vt 0.692529 0.159217
vt 0.638867 0.142333
vt 0.635424 0.118167
vt 0.697237 0.148202
vt 0.689148 0.168521
vt 0.626430 0.159809
vt 0.701618 0.137275
vt 0.664612 0.112132
vt 0.675967 0.067260
vt 0.709190 0.124794
vt 0.687353 0.193327
vt 0.685203 0.188027
vt 0.686123 0.177905
vt 0.626089 0.176561
vt 0.616989 0.209680
vt 0.220687 0.347992
vt 0.214236 0.406269
vt 0.063789 0.922505
vt 0.118548 0.977265
vt 0.063789 0.977264
vt 0.680349 0.268201
vt 0.700892 0.331361
vt 0.652085 0.393541
vt 0.648187 0.372770
vt 0.334989 0.615897
vt 0.693620 0.321158
vt 0.637498 0.358674
vt 0.173307 0.977265
vt 0.330880 0.306735
vt 0.440877 0.310704
vt 0.425741 0.575607
vt 0.425920 0.600722
vt 0.721703 0.416205
vt 0.702620 0.426810
vt 0.731201 0.341518
vt 0.735245 0.434398
vt 0.710551 0.325702
vt 0.590979 0.212343
vt 0.678911 0.238296
vt 0.684568 0.249784
vt 0.548048 0.429107
vt 0.532906 0.447950
vt 0.057342 0.863342
vt 0.193831 0.750408
vt 0.167402 0.749455
vt 0.244902 0.757261
vt 0.219119 0.753589
vt 0.370865 0.779547
vt 0.350902 0.776599
vt 0.320548 0.764995
vt 0.140807 0.747237
vt 0.296468 0.762554
vt 0.271131 0.760010
vt 0.111465 0.743881
vt 0.080472 0.738951
vt 0.047551 0.744139
vt 0.446845 0.786493
vt 0.418069 0.782286
vt 0.469500 0.785432
vt 0.325389 0.793400
vt 0.292601 0.790208
vt 0.368921 0.797191
vt 0.351641 0.799378
vt 0.238415 0.785346
vt 0.212436 0.781724
vt 0.265730 0.788247
vt 0.131839 0.779637
vt 0.097187 0.780543
vt 0.183195 0.788082
vt 0.153063 0.782014
vt 0.419426 0.805178
vt 0.330878 0.813506
vt 0.288649 0.818539
vt 0.371287 0.816687
vt 0.349449 0.811390
vt 0.230402 0.812936
vt 0.198211 0.805378
vt 0.259489 0.816151
vt 0.179875 0.801441
vt 0.164154 0.800222
vt 0.122862 0.809007
vt 0.420380 0.829780
vt 0.254668 0.858444
vt 0.227569 0.851436
vt 0.135713 0.848629
vt 0.107927 0.844542
vt 0.492246 0.655824
vt 0.491661 0.680295
vt 0.493227 0.604647
vt 0.493079 0.632492
vt 0.490808 0.704659
vt 0.491391 0.728507
vt 0.492472 0.765138
vt 0.396949 0.865391
vt 0.348282 0.847092
vt 0.317961 0.851890
vt 0.282333 0.860249
vt 0.201915 0.854879
vt 0.171672 0.841030
vt 0.523988 0.654630
vt 0.523201 0.680968
vt 0.516867 0.607522
vt 0.523272 0.630157
vt 0.512709 0.703474
vt 0.516168 0.728987
vt 0.893449 0.389854
vt 0.858429 0.328470
vt 0.870057 0.323219
vt 0.912779 0.378921
vt 0.861712 0.413372
vt 0.839803 0.347961
vt 0.843785 0.341159
vt 0.874425 0.397535
vt 0.855155 0.426597
vt 0.834320 0.416175
vt 0.932948 0.364201
vt 0.880519 0.315587
vt 0.886315 0.307120
vt 0.950467 0.349337
vt 0.893857 0.294020
vt 0.954256 0.325717
vt 0.416812 0.861532
vt 0.974098 0.317890
vt 0.896521 0.282569
vt 0.897505 0.273373
vt 0.959358 0.287893
vt 0.982000 0.202520
vt 0.898432 0.217054
vt 0.895742 0.206178
vt 0.967974 0.187769
vt 0.952254 0.150291
vt 0.886854 0.176635
vt 0.882550 0.167853
vt 0.972644 0.114491
vt 0.976172 0.278540
vt 0.899246 0.265275
vt 0.906870 0.247067
vt 0.967229 0.257221
vt 0.913291 0.238024
vt 0.978141 0.237055
vt 0.901650 0.224864
vt 0.995540 0.219494
vt 0.774862 0.022448
vt 0.772385 0.105468
vt 0.764327 0.108231
vt 0.752600 0.006742
vt 0.894149 0.195870
vt 0.951662 0.166893
vt 0.699513 0.062481
vt 0.723995 0.116974
vt 0.950211 0.104263
vt 0.874815 0.157579
vt 0.863334 0.147672
vt 0.920759 0.096745
vt 0.852726 0.138177
vt 0.904655 0.080167
vt 0.843383 0.130276
vt 0.893650 0.059109
vt 0.832314 0.122895
vt 0.871588 0.053274
vt 0.818167 0.114473
vt 0.854049 0.026665
vt 0.806990 0.109152
vt 0.826786 0.041111
vt 0.786532 0.106702
vt 0.800305 0.045907
vt 0.734216 0.032473
vt 0.754096 0.109060
vt 0.741739 0.110463
vt 0.711102 0.009608
vt 0.733386 0.115127
vt 0.700187 0.035664
vt 0.817918 0.389755
vt 0.830889 0.344188
vt 0.758602 0.342854
vt 0.783940 0.392304
vt 0.801877 0.424531
vt 0.800004 0.395127
vt 0.811184 0.754234
vt 0.807964 0.738371
vt 0.799406 0.587920
vt 0.798526 0.564817
vt 0.811953 0.719718
vt 0.811052 0.703169
vt 0.797251 0.540365
vt 0.795310 0.516530
vt 0.791231 0.489456
vt 0.800190 0.654897
vt 0.800534 0.631378
vt 0.826523 0.834957
vt 0.822255 0.812376
vt 0.800320 0.609091
vt 0.817637 0.788207
vt 0.830332 0.878570
vt 0.797471 0.839329
vt 0.793278 0.818325
vt 0.794168 0.737815
vt 0.789911 0.725363
vt 0.788794 0.797840
vt 0.782681 0.779655
vt 0.775949 0.657272
vt 0.773662 0.633325
vt 0.788473 0.704903
vt 0.766587 0.565422
vt 0.764389 0.542552
vt 0.770842 0.613468
vt 0.768862 0.589701
vt 0.762238 0.519339
vt 0.759442 0.493926
vt 0.800699 0.877034
vt 0.763848 0.855947
vt 0.760072 0.823945
vt 0.755560 0.759373
vt 0.769412 0.727772
vt 0.757917 0.801595
vt 0.755860 0.780825
vt 0.744536 0.661683
vt 0.741180 0.638928
vt 0.749013 0.687666
vt 0.729700 0.569512
vt 0.726620 0.544642
vt 0.737697 0.612365
vt 0.734972 0.592396
vt 0.724217 0.520261
vt 0.722185 0.495384
vt 0.777482 0.883796
vt 0.757640 0.470681
vt 0.720441 0.471614
vt 0.733821 0.847363
vt 0.732902 0.830419
vt 0.729316 0.755967
vt 0.730752 0.728438
vt 0.731019 0.803419
vt 0.729995 0.781633
vt 0.717730 0.667683
vt 0.713432 0.637908
vt 0.723162 0.696840
vt 0.691545 0.574788
vt 0.696539 0.547544
vt 0.714151 0.614555
vt 0.711131 0.597764
vt 0.693181 0.522810
vt 0.691354 0.497950
vt 0.690111 0.473445
vt 0.707872 0.848912
vt 0.705975 0.827431
vt 0.700138 0.756283
vt 0.697716 0.732200
vt 0.703814 0.805015
vt 0.702563 0.782906
vt 0.689900 0.674148
vt 0.685623 0.642125
vt 0.694345 0.703478
vt 0.669870 0.578044
vt 0.668383 0.567843
vt 0.680728 0.617879
vt 0.670427 0.590019
vt 0.660741 0.525708
vt 0.659568 0.499809
vt 0.658553 0.475191
vt 0.682269 0.851445
vt 0.679459 0.830173
vt 0.671562 0.758595
vt 0.668736 0.734825
vt 0.676787 0.807444
vt 0.674910 0.785267
vt 0.662642 0.696343
vt 0.656174 0.648043
vt 0.670538 0.711420
vt 0.635485 0.579545
vt 0.629796 0.551453
vt 0.627896 0.526836
vt 0.628196 0.500569
vt 0.627775 0.476090
vt 0.654157 0.877679
vt 0.650789 0.839321
vt 0.641016 0.756094
vt 0.636693 0.736586
vt 0.646839 0.810174
vt 0.645225 0.788070
vt 0.633043 0.710404
vt 0.624362 0.656374
vt 0.633913 0.720591
vt 0.225696 0.477980
vt 0.177557 0.533460
vt 0.150001 0.514198
vt 0.211948 0.468544
vt 0.594567 0.422778
vt 0.599061 0.452599
vt 0.572837 0.454285
vt 0.569121 0.428543
vt 0.598531 0.477715
vt 0.572450 0.478749
vt 0.598904 0.501251
vt 0.599232 0.527992
vt 0.569792 0.541227
vt 0.573261 0.502009
vt 0.621351 0.866839
vt 0.618335 0.836948
vt 0.615295 0.749290
vt 0.614406 0.744970
vt 0.615999 0.813154
vt 0.613626 0.789937
vt 0.595446 0.701965
vt 0.567527 0.642253
vt 0.606434 0.720833
vt 0.197009 0.563165
vt 0.244311 0.480940
vt 0.263975 0.494377
vt 0.262931 0.483117
vt 0.643860 0.440386
vt 0.638526 0.887226
vt 0.621389 0.892178
vt 0.626877 0.426825
vt 0.497240 0.492082
vt 0.491370 0.513970
vt 0.429468 0.454864
vt 0.446127 0.447389
vt 0.514467 0.480464
vt 0.460002 0.440870
vt 0.720486 0.446762
vt 0.760409 0.439840
vt 0.690721 0.448467
vt 0.659454 0.450503
vt 0.525851 0.465164
vt 0.472318 0.435303
vt 0.482420 0.428712
vt 0.486434 0.420897
vt 0.486980 0.416510
vt 0.468332 0.519879
vt 0.412487 0.463171
vt 0.242224 0.580081
vt 0.219541 0.577968
vt 0.277347 0.575010
vt 0.283887 0.490592
vt 0.307987 0.573914
vt 0.307282 0.483241
vt 0.345357 0.556573
vt 0.339282 0.481272
vt 0.596226 0.886727
vt 0.595493 0.858279
vt 0.554944 0.685976
vt 0.540679 0.653359
vt 0.587698 0.789757
vt 0.602481 0.757107
vt 0.595360 0.837018
vt 0.595424 0.815477
vt 0.608376 0.745509
vt 0.580521 0.721789
vt 0.572819 0.885944
vt 0.573341 0.858593
vt 0.555728 0.789282
vt 0.562873 0.766935
vt 0.571994 0.836913
vt 0.558243 0.809740
vt 0.563923 0.745952
vt 0.549991 0.723411
vt 0.533604 0.698919
vt 0.594663 0.902477
vt 0.572500 0.901181
vt 0.622505 0.909888
vt 0.593103 0.918883
vt 0.572238 0.917107
vt 0.617248 0.926209
vt 0.598169 0.958110
vt 0.573341 0.947755
vt 0.626449 0.979100
vt 0.855455 0.889237
vt 0.837792 0.896320
vt 0.430811 0.164129
vt 0.472205 0.104350
vt 0.903675 0.858692
vt 0.884333 0.863817
vt 0.937198 0.865450
vt 0.421241 0.159601
vt 0.455684 0.102002
vt 0.904674 0.871153
vt 0.889990 0.876191
vt 0.938918 0.882882
vt 0.863880 0.904000
vt 0.414390 0.150583
vt 0.440777 0.092441
vt 0.914457 0.898140
vt 0.893559 0.903606
vt 0.937228 0.899772
vt 0.870952 0.922156
vt 0.552256 0.956960
vt 0.552795 0.916976
vt 0.552068 0.900918
vt 0.551200 0.885377
vt 0.554474 0.859103
vt 0.552747 0.841351
vt 0.539162 0.820985
vt 0.532553 0.946672
vt 0.534637 0.917510
vt 0.533324 0.902465
vt 0.531300 0.888820
vt 0.526635 0.868433
vt 0.524799 0.847401
vt 0.494869 0.823552
vt 0.510636 0.948769
vt 0.517362 0.918675
vt 0.514989 0.904486
vt 0.513287 0.891585
vt 0.506773 0.873426
vt 0.488529 0.949817
vt 0.490647 0.930445
vt 0.472475 0.919302
vt 0.486062 0.897017
vt 0.473846 0.878223
vt 0.031266 0.218004
vt 0.029771 0.201495
vt 0.121178 0.167329
vt 0.119682 0.186889
vt 0.101666 0.340662
vt 0.091920 0.330216
vt 0.183449 0.309491
vt 0.178239 0.328522
vt 0.124243 0.392047
vt 0.120769 0.368674
vt 0.178377 0.357411
vt 0.185974 0.370290
vt 0.085853 0.026498
vt 0.101270 0.014696
vt 0.119551 0.062791
vt 0.111163 0.070112
vt 0.107486 0.443959
vt 0.141870 0.406928
vt 0.193153 0.393963
vt 0.190582 0.411862
vt 0.069163 0.240141
vt 0.048626 0.229114
vt 0.119216 0.204610
vt 0.123245 0.218310
vt 0.057032 0.040661
vt 0.079889 0.045195
vt 0.103079 0.073973
vt 0.098057 0.080181
vt 0.041128 0.125957
vt 0.013657 0.109336
vt 0.085228 0.107621
vt 0.088286 0.117534
vt 0.115932 0.469420
vt 0.195571 0.429607
vt 0.018352 0.091901
vt 0.022177 0.071999
vt 0.081861 0.090645
vt 0.081983 0.099194
vt 0.052580 0.060870
vt 0.085549 0.082435
vt 0.094825 0.293311
vt 0.103416 0.275916
vt 0.149095 0.252099
vt 0.165584 0.264095
vt 0.094218 0.260311
vt 0.136620 0.242314
vt 0.032652 0.183644
vt 0.021053 0.168589
vt 0.101031 0.142527
vt 0.112787 0.152638
vt 0.114010 0.353560
vt 0.176020 0.344366
vt 0.125092 0.496422
vt 0.200363 0.446781
vt 0.073966 0.255307
vt 0.130311 0.229232
vt 0.014361 0.151260
vt 0.094548 0.131898
vt 0.105577 0.299456
vt 0.163319 0.283099
vt 0.155902 0.024555
vt 0.174215 0.021846
vt 0.158529 0.069870
vt 0.148445 0.066925
vt 0.306941 0.088885
vt 0.325669 0.085924
vt 0.328021 0.150500
vt 0.316822 0.153394
vt 0.294587 0.099637
vt 0.290291 0.149155
vt 0.122977 0.019009
vt 0.128177 0.064784
vt 0.277437 0.076746
vt 0.287980 0.088474
vt 0.275817 0.152295
vt 0.255465 0.138513
vt 0.189580 0.067484
vt 0.211838 0.060935
vt 0.176120 0.089835
vt 0.177602 0.078901
vt 0.350693 0.083800
vt 0.361706 0.086714
vt 0.363077 0.143340
vt 0.352320 0.150302
vt 0.265352 0.072533
vt 0.238973 0.132235
vt 0.375191 0.092362
vt 0.372747 0.140802
vt 0.252338 0.067702
vt 0.222390 0.124669
vt 0.186677 0.039528
vt 0.168809 0.074013
vt 0.230784 0.079059
vt 0.196182 0.131637
vt 0.223777 0.069801
vt 0.227520 0.076763
vt 0.192605 0.117220
vt 0.180549 0.108609
vt 0.337215 0.091532
vt 0.339830 0.147480
vt 0.400391 0.075813
vt 0.421175 0.080888
vt 0.397910 0.141687
vt 0.385240 0.138574
vt 0.216270 0.067758
vt 0.175602 0.101854
vt 0.140381 0.013813
vt 0.138566 0.065354
vt 0.165516 0.292328
vt 0.124542 0.306539
vt 0.363318 0.575876
vt 0.372300 0.506822
vt 0.382193 0.512980
vt 0.385686 0.579339
vt 0.414781 0.564213
vt 0.390429 0.505078
vt 0.401668 0.499871
vt 0.429858 0.544586
vt 0.433500 0.514352
vt 0.399488 0.479545
usemtl terrain
s off
f 360/1 187/2 220/3 359/4
f 361/5 357/6 86/7 259/8
f 369/9 372/10 371/11 367/12
f 369/9 368/13 370/14 372/10
f 461/15 516/16 646/17 465/18
usemtl terrain_terrainUV
f 261/19 79/20 4/21 128/22
f 260/23 85/24 7/25 124/26
f 258/27 83/28 6/29 132/30
f 257/31 98/32 19/33 135/34
f 256/35 94/36 15/37 136/38
f 255/39 101/40 20/41 139/42
f 254/43 96/44 18/45 140/46
f 253/47 104/48 12/49 115/50
f 252/51 105/52 21/53 142/54
f 251/55 108/56 16/57 119/58
f 250/59 109/60 22/61 145/62
f 249/63 90/64 11/65 146/66
f 248/67 147/68 60/69 111/70
f 247/71 148/72 61/73 149/74
f 246/75 123/76 35/77 150/78
f 245/79 152/80 62/81 153/82
f 244/83 154/84 30/85 84/86
f 243/87 155/88 63/89 156/90
f 242/91 144/92 57/93 157/94
f 240/95 129/96 41/97 159/98
f 239/99 160/100 55/101 106/102
f 238/103 161/104 65/105 162/106
f 237/107 164/108 26/109 80/110
f 236/111 165/112 66/113 166/114
f 235/115 141/116 53/117 167/118
f 234/119 168/120 52/121 103/122
f 233/123 169/124 67/125 170/126
f 232/127 130/128 42/129 171/130
f 231/131 172/132 51/133 102/134
f 230/135 173/136 68/137 174/138
f 229/139 138/140 50/141 175/142
f 228/143 176/144 69/145 177/146
f 227/147 137/148 49/149 178/150
f 226/151 179/152 48/153 100/154
f 225/155 180/156 70/157 181/158
f 224/159 127/160 39/161 182/162
f 223/163 183/164 47/165 99/166
f 222/167 184/168 71/169 185/170
f 221/171 134/172 46/173 186/174
f 87/175 8/176 195/177 220/178
f 219/179 188/180 72/181 189/182
f 218/183 133/184 45/185 190/186
f 217/187 191/188 44/189 97/190
f 216/191 192/192 73/193 193/194
f 215/195 118/196 29/197 194/198
f 214/199 196/200 74/201 197/202
f 213/203 121/204 32/205 198/206
f 212/207 199/208 36/209 91/210
f 211/211 200/212 75/213 201/214
f 210/215 120/216 31/217 202/218
f 209/219 203/220 40/221 95/222
f 208/223 204/224 76/225 205/226
f 207/227 114/228 25/229 206/230
f 204/224 207/227 206/230 76/225
f 60/69 146/66 207/227 204/224
f 146/66 11/65 114/228 207/227
f 144/92 208/223 205/226 57/93
f 22/231 111/70 208/223 144/92
f 111/70 60/69 204/224 208/223
f 108/56 209/219 95/222 16/57
f 57/93 205/226 209/219 108/56
f 205/226 76/225 203/220 209/219
f 200/212 210/215 202/218 75/213
f 56/232 143/233 210/234 200/235
f 143/233 17/236 120/237 210/234
f 141/116 211/211 201/214 53/117
f 21/53 107/238 211/239 141/240
f 107/238 56/232 200/235 211/239
f 104/48 212/207 91/210 12/49
f 53/117 201/214 212/207 104/48
f 201/214 75/213 199/208 212/207
f 196/200 213/203 198/206 74/201
f 52/121 140/46 213/241 196/242
f 140/46 18/45 121/243 213/241
f 137/148 214/199 197/202 49/149
f 20/41 103/122 214/244 137/245
f 103/122 52/121 196/242 214/244
f 192/192 215/195 194/198 73/193
f 48/153 136/38 215/195 192/192
f 136/38 15/37 118/196 215/195
f 133/184 216/246 193/247 45/185
f 19/33 100/154 216/191 133/248
f 100/154 48/153 192/192 216/191
f 193/247 73/249 191/188 217/187
f 188/180 218/183 190/186 72/181
f 47/165 135/34 218/250 188/251
f 135/34 19/33 133/248 218/250
f 121/204 219/179 189/182 32/205
f 18/45 99/166 219/252 121/243
f 99/166 47/165 188/251 219/252
f 220/3 195/253 358/254 359/4
f 131/255 43/256 259/8 86/7
f 184/168 221/171 186/174 71/169
f 34/257 89/258 221/171 184/168
f 89/258 10/259 134/172 221/171
f 130/128 222/167 185/170 42/129
f 5/260 122/261 222/167 130/128
f 122/261 34/257 184/168 222/167
f 96/44 223/163 99/166 18/45
f 42/129 185/170 223/163 96/44
f 185/170 71/169 183/164 223/163
f 180/156 224/159 182/162 70/157
f 24/262 78/263 224/159 180/156
f 78/263 2/264 127/160 224/159
f 134/172 225/155 181/158 46/173
f 10/259 113/265 225/155 134/172
f 113/265 24/262 180/156 225/155
f 98/32 226/151 100/154 19/33
f 46/173 181/158 226/151 98/32
f 181/158 70/157 179/152 226/151
f 176/144 227/147 178/150 69/145
f 51/133 139/42 227/266 176/267
f 139/42 20/41 137/245 227/266
f 9/268 102/269 228/143 88/270
f 102/269 51/271 176/144 228/143
f 173/136 229/139 175/142 68/137
f 38/272 93/273 229/139 173/136
f 93/273 14/274 138/140 229/139
f 77/275 230/135 174/138 23/276
f 1/277 126/278 230/135 77/275
f 126/278 38/272 173/136 230/135
f 112/279 231/280 102/269 9/268
f 23/276 174/138 231/131 112/281
f 174/138 68/137 172/132 231/131
f 169/124 232/127 171/130 67/125
f 28/282 82/283 232/127 169/124
f 82/283 5/260 130/128 232/127
f 138/140 233/123 170/126 50/141
f 14/274 117/284 233/123 138/140
f 117/284 28/282 169/124 233/123
f 101/40 234/119 103/122 20/41
f 50/141 170/126 234/119 101/40
f 170/126 67/125 168/120 234/119
f 165/112 235/115 167/118 66/113
f 55/101 142/285 235/115 165/112
f 142/285 21/286 141/116 235/115
f 92/287 236/288 166/289 37/290
f 13/291 106/292 236/288 92/287
f 106/102 55/101 165/112 236/111
f 125/293 237/294 80/295 3/296
f 37/290 166/289 237/294 125/293
f 166/114 66/113 164/108 237/107
f 81/297 238/103 162/106 27/298
f 116/299 239/300 106/292 13/291
f 27/298 162/106 239/300 116/299
f 162/106 65/105 160/301 239/300
f 158/302 240/95 159/98 64/303
f 43/256 131/255 240/95 158/302
f 131/304 8/176 129/305 240/306
f 105/52 241/307 107/238 21/53
f 155/88 242/91 157/94 63/89
f 59/308 145/62 242/309 155/310
f 145/311 22/231 144/92 242/91
f 120/216 243/87 156/90 31/217
f 17/236 110/312 243/313 120/237
f 110/312 59/308 155/310 243/313
f 85/24 244/83 84/86 7/25
f 31/217 156/90 244/83 85/24
f 156/90 63/89 154/84 244/83
f 129/96 245/79 153/82 41/97
f 8/176 87/175 245/314 129/305
f 87/315 33/316 152/80 245/79
f 148/317 246/75 150/78 61/318
f 109/60 248/319 111/320 22/61
f 58/321 149/74 248/319 109/60
f 149/74 61/73 147/322 248/319
f 147/68 249/63 146/66 60/69
f 61/318 150/78 249/63 147/68
f 150/78 35/77 90/64 249/63
f 151/323 250/59 145/62 59/308
f 154/84 251/55 119/58 30/85
f 63/89 157/94 251/55 154/84
f 157/94 57/93 108/56 251/55
f 160/301 252/51 142/54 55/324
f 65/105 163/325 252/51 160/301
f 163/325 54/326 105/52 252/51
f 164/108 253/47 115/50 26/109
f 66/113 167/118 253/47 164/108
f 167/118 53/117 104/48 253/47
f 168/120 254/43 140/46 52/121
f 67/125 171/130 254/43 168/120
f 171/130 42/129 96/44 254/43
f 172/132 255/39 139/42 51/133
f 68/137 175/142 255/39 172/132
f 175/142 50/141 101/40 255/39
f 179/152 256/35 136/38 48/153
f 70/157 182/162 256/35 179/152
f 182/162 39/161 94/36 256/35
f 183/164 257/31 135/34 47/165
f 71/169 186/174 257/31 183/164
f 186/174 46/173 98/32 257/31
f 191/188 258/27 132/30 44/189
f 73/249 194/327 258/27 191/188
f 194/327 29/328 83/28 258/27
f 33/316 87/315 220/3 187/2
f 8/176 131/304 86/329 195/177
f 195/253 86/7 357/6 358/254
f 199/208 260/23 124/26 36/209
f 75/213 202/218 260/23 199/208
f 202/218 31/217 85/24 260/23
f 203/220 261/19 128/22 40/221
f 76/225 206/230 261/19 203/220
f 206/230 25/229 79/20 261/19
f 91/210 36/209 268/330 272/331
f 124/26 7/25 263/332 276/333
f 16/57 95/222 273/334 265/335
f 119/58 16/57 265/335 275/336
f 12/49 91/210 272/331 264/337
f 84/86 30/85 267/338 271/339
f 115/50 12/49 264/337 274/340
f 80/110 26/109 266/341 270/342
f 30/85 119/58 275/336 267/338
f 7/25 84/86 271/339 263/332
f 40/221 128/22 277/343 269/344
f 26/109 115/50 274/340 266/341
f 36/209 124/26 276/333 268/330
f 95/222 40/221 269/344 273/334
f 128/22 4/21 262/345 277/343
f 267/338 275/336 288/346 281/347
f 265/335 273/334 286/348 280/349
f 276/333 263/332 278/350 289/351
f 263/332 271/339 284/352 278/350
f 274/340 264/337 279/353 287/354
f 272/331 268/330 282/355 285/356
f 268/330 276/333 289/351 282/355
f 264/337 272/331 285/356 279/353
f 275/336 265/335 280/349 288/346
f 273/334 269/344 283/357 286/348
f 271/339 267/338 281/347 284/352
f 281/347 288/346 299/358 293/359
f 280/349 286/348 298/360 292/361
f 289/351 278/350 290/362 300/363
f 278/350 284/352 296/364 290/362
f 285/356 282/355 294/365 297/366
f 282/355 289/351 300/363 294/365
f 279/353 285/356 297/366 291/367
f 288/346 280/349 292/361 299/358
f 286/348 283/357 295/368 298/360
f 284/352 281/347 293/359 296/364
f 290/362 296/364 319/369 328/370
f 291/367 297/366 318/371 311/372
f 114/228 11/65 302/373 307/374
f 90/64 35/77 304/375 306/376
f 79/20 25/229 303/377 305/378
f 25/229 114/228 307/374 303/377
f 11/65 90/64 306/376 302/373
f 4/21 79/20 305/378 301/379
f 292/361 298/360 310/380 331/381
f 293/359 299/358 309/382 330/383
f 294/365 300/363 308/384 329/385
f 307/374 302/373 312/386 317/387
f 306/376 304/375 314/388 316/389
f 305/378 303/377 313/390 315/391
f 303/377 307/374 317/387 313/390
f 302/373 306/376 316/389 312/386
f 299/358 292/361 331/381 309/382
f 316/392 321/393 324/394 312/395
f 304/396 322/397 323/398 314/399
f 35/400 123/401 322/397 304/396
f 317/402 325/403 326/404 313/405
f 313/405 326/404 327/406 315/407
f 300/363 290/362 328/370 308/384
f 296/364 293/359 330/383 319/369
f 297/366 294/365 329/385 318/371
f 298/360 295/368 320/408 310/380
f 312/395 324/394 325/403 317/402
f 314/399 323/398 321/393 316/392
f 305/409 333/410 335/411 301/412
f 283/413 340/414 338/415 295/416
f 310/417 336/418 343/419 331/420
f 4/421 337/422 339/423 262/424
f 262/424 339/423 341/425 277/426
f 277/426 341/425 342/427 269/428
f 315/407 327/406 333/410 305/409
f 301/412 335/411 337/422 4/421
f 291/429 353/430 351/431 279/432
f 295/416 338/415 332/433 320/434
f 269/428 342/427 340/414 283/413
f 270/435 356/436 3/296 80/295
f 309/437 344/438 346/439 330/440
f 330/440 346/439 348/441 319/442
f 319/442 348/441 349/443 328/444
f 328/444 349/443 350/445 308/446
f 308/446 350/445 352/447 329/448
f 329/448 352/447 354/449 318/450
f 318/450 354/449 355/451 311/452
f 320/434 332/433 336/418 310/417
f 331/420 343/419 344/438 309/437
f 287/453 347/454 345/455 274/456
f 274/456 345/455 334/457 266/458
f 266/458 334/457 356/436 270/435
f 279/432 351/431 347/454 287/453
f 311/452 355/451 353/430 291/429
f 322/397 123/401 362/459 366/460
f 148/72 247/71 365/461 363/462
f 123/401 246/463 364/464 362/459
f 246/463 148/72 363/462 364/464
f 366/460 362/459 367/12 371/11
f 363/462 365/461 370/14 368/13
f 362/459 364/464 369/9 367/12
f 364/464 363/462 368/13 369/9
f 117/284 14/274 376/465 386/466
f 10/259 89/258 383/467 375/468
f 82/283 28/282 378/469 382/470
f 113/265 10/259 375/468 385/471
f 78/263 24/262 377/472 381/473
f 122/261 5/260 374/474 387/475
f 28/282 117/284 386/466 378/469
f 5/260 82/283 382/470 374/474
f 38/272 126/278 388/476 380/477
f 24/262 113/265 385/471 377/472
f 34/257 122/261 387/475 379/478
f 93/273 38/272 380/477 384/479
f 126/278 1/277 373/480 388/476
f 89/258 34/257 379/478 383/467
f 14/274 93/273 384/479 376/465
f 380/477 388/476 405/481 397/482
f 378/469 386/466 403/483 395/484
f 376/465 384/479 401/485 393/486
f 387/475 374/474 391/487 404/488
f 374/474 382/470 399/489 391/487
f 385/471 375/468 392/490 402/491
f 383/467 379/478 396/492 400/493
f 381/473 377/472 394/494 398/495
f 379/478 387/475 404/488 396/492
f 377/472 385/471 402/491 394/494
f 388/476 373/480 389/496 405/481
f 375/468 383/467 400/493 392/490
f 386/466 376/465 393/486 403/483
f 384/479 380/477 397/482 401/485
f 382/470 378/469 395/484 399/489
f 397/482 405/481 422/497 414/498
f 395/484 403/483 420/499 412/500
f 393/486 401/485 418/501 410/502
f 404/488 391/487 408/503 421/504
f 391/487 399/489 416/505 408/503
f 402/491 392/490 409/506 419/507
f 400/493 396/492 413/508 417/509
f 398/495 394/494 411/510 415/511
f 396/492 404/488 421/504 413/508
f 394/494 402/491 419/507 411/510
f 405/481 389/496 406/512 422/497
f 392/490 400/493 417/509 409/506
f 403/483 393/486 410/502 420/499
f 390/513 398/495 415/511 407/514
f 401/485 397/482 414/498 418/501
f 399/489 395/484 412/500 416/505
f 414/498 422/497 438/515 430/516
f 412/500 420/499 436/517 428/518
f 410/502 418/501 434/519 426/520
f 421/504 408/503 424/521 437/522
f 408/503 416/505 432/523 424/521
f 419/507 409/506 425/524 435/525
f 417/509 413/508 429/526 433/527
f 415/511 411/510 427/528 431/529
f 413/508 421/504 437/522 429/526
f 411/510 419/507 435/525 427/528
f 409/506 417/509 433/527 425/524
f 420/499 410/502 426/520 436/517
f 407/514 415/511 431/529 423/530
f 418/501 414/498 430/516 434/519
f 416/505 412/500 428/518 432/523
f 430/516 438/515 454/531 446/532
f 428/518 436/517 452/533 444/534
f 426/520 434/519 450/535 442/536
f 437/522 424/521 440/537 453/538
f 424/521 432/523 448/539 440/537
f 435/525 425/524 441/540 451/541
f 433/527 429/526 445/542 449/543
f 431/529 427/528 443/544 447/545
f 429/526 437/522 453/538 445/542
f 427/528 435/525 451/541 443/544
f 425/524 433/527 449/543 441/540
f 436/517 426/520 442/536 452/533
f 423/530 431/529 447/545 439/546
f 434/519 430/516 446/532 450/535
f 432/523 428/518 444/534 448/539
f 446/532 454/531 470/547 462/548
f 444/534 452/533 468/549 460/550
f 442/536 450/535 466/551 458/552
f 453/538 440/537 456/553 469/554
f 440/537 448/539 464/555 456/553
f 451/541 441/540 457/556 467/557
f 449/543 445/542 461/15 465/18
f 447/545 443/544 459/558 463/559
f 445/542 453/538 469/554 461/15
f 443/544 451/541 467/557 459/558
f 441/540 449/543 465/18 457/556
f 452/533 442/536 458/552 468/549
f 439/546 447/545 463/559 455/560
f 450/535 446/532 462/548 466/551
f 448/539 444/534 460/550 464/555
f 462/548 470/547 486/561 478/562
f 460/550 468/549 484/563 476/564
f 458/552 466/551 482/565 474/566
f 469/554 456/553 472/567 485/568
f 456/553 464/555 480/569 472/567
f 469/554 485/568 516/16 461/15
f 489/570 491/571 477/572 479/573
f 491/574 493/575 475/576 477/577
f 493/575 499/578 522/579 475/576
f 495/580 497/581 523/582 473/583
f 499/578 495/580 473/583 522/579
f 468/549 458/552 474/566 484/563
f 466/551 462/548 478/562 482/565
f 464/555 460/550 476/564 480/569
f 478/562 486/561 502/584 494/585
f 476/564 484/563 500/586 492/587
f 474/566 482/565 498/588 490/589
f 485/568 472/567 488/590 501/591
f 472/567 480/569 496/592 488/590
f 521/593 491/571 489/570 481/594
f 520/595 521/593 481/594 483/596
f 455/560 463/559 495/580 499/578
f 463/559 459/558 497/581 495/580
f 515/597 455/560 499/578 493/575
f 486/561 471/598 487/599 502/584
f 521/600 515/597 493/575 491/574
f 484/563 474/566 490/589 500/586
f 482/565 478/562 494/585 498/588
f 480/569 476/564 492/587 496/592
f 94/601 39/602 506/603 508/604
f 15/605 94/601 508/604 504/606
f 390/513 407/514 512/607 511/608
f 407/514 423/530 513/609 512/607
f 423/530 439/546 514/610 513/609
f 439/546 455/560 515/597 514/610
f 118/611 15/605 504/606 509/612
f 83/28 29/328 505/613 507/614
f 29/328 118/611 509/612 505/613
f 6/29 83/28 507/614 503/615
f 39/602 127/616 510/617 506/603
f 514/618 515/619 521/593 520/595
f 513/620 514/618 520/595 519/621
f 512/622 513/620 519/621 518/623
f 511/624 512/622 518/623 517/625
f 502/584 487/599 524/626 533/627
f 501/591 488/590 525/628 532/629
f 500/586 490/589 526/630 531/631
f 498/588 494/585 528/632 530/633
f 496/592 492/587 527/634 529/635
f 494/585 502/584 533/627 528/632
f 492/587 500/586 531/631 527/634
f 490/589 498/588 530/633 526/630
f 488/590 496/592 529/635 525/628
f 533/627 524/626 534/636 542/637
f 531/631 526/630 536/638 541/639
f 530/633 528/632 538/640 540/641
f 529/635 527/634 537/642 539/643
f 528/632 533/627 542/637 538/640
f 527/634 531/631 541/639 537/642
f 526/630 530/633 540/641 536/638
f 525/628 529/635 539/643 535/644
f 534/636 524/626 544/645 545/646
f 524/626 487/599 543/647 544/645
f 545/646 544/645 547/648 548/649
f 544/645 543/647 546/650 547/648
f 548/649 547/648 550/651 551/652
f 547/648 546/650 549/653 550/651
f 373/480 1/277 552/654 557/655
f 112/279 9/268 553/656 556/657
f 77/275 23/276 554/658 555/659
f 23/276 112/281 556/660 554/658
f 1/277 77/275 555/659 552/654
f 556/657 553/656 559/661 562/662
f 555/659 554/658 560/663 561/664
f 554/658 556/660 562/665 560/663
f 552/654 555/659 561/664 558/666
f 562/662 559/661 564/667 567/668
f 561/664 560/663 565/669 566/670
f 560/663 562/665 567/671 565/669
f 558/666 561/664 566/670 563/672
f 548/649 551/652 574/673 573/674
f 545/646 548/649 573/674 572/675
f 534/636 545/646 572/675 568/676
f 542/637 534/636 568/676 571/677
f 540/641 538/640 569/678 570/679
f 538/640 542/637 571/677 569/678
f 573/674 574/673 581/680 580/681
f 572/675 573/674 580/681 579/682
f 568/676 572/675 579/682 575/683
f 571/677 568/676 575/683 578/684
f 570/679 569/678 576/685 577/686
f 569/678 571/677 578/684 576/685
f 580/681 581/680 586/687 585/688
f 579/682 580/681 585/688 584/689
f 575/683 579/682 584/689 582/690
f 578/684 575/683 582/690 583/691
f 585/688 586/687 591/692 590/693
f 584/689 585/688 590/693 589/694
f 582/690 584/689 589/694 587/695
f 583/691 582/690 587/695 588/696
f 537/697 541/698 611/699 608/700
f 457/701 465/702 594/703 592/704
f 497/705 459/706 593/707 599/708
f 590/709 591/710 621/711 620/712
f 473/713 523/714 603/715 596/716
f 535/717 539/718 609/719 606/720
f 587/721 589/722 619/723 617/724
f 577/725 576/726 613/727 614/728
f 522/729 473/713 596/716 602/730
f 578/731 583/732 616/733 615/734
f 583/732 588/735 618/736 616/733
f 485/737 501/738 600/739 598/740
f 523/714 497/705 599/708 603/715
f 501/738 532/741 605/742 600/739
f 536/743 540/744 610/745 607/746
f 467/747 457/701 592/704 595/748
f 475/749 522/729 602/730 597/750
f 589/722 590/709 620/712 619/723
f 525/751 535/717 606/720 604/752
f 532/741 525/751 604/752 605/742
f 588/735 587/721 617/724 618/736
f 570/753 577/725 614/728 612/754
f 576/726 578/731 615/734 613/727
f 540/744 570/753 612/754 610/745
f 541/698 536/743 607/746 611/699
f 516/755 485/737 598/740 601/756
f 539/718 537/697 608/700 609/719
f 459/706 467/747 595/748 593/707
f 477/572 475/749 597/750 479/573
f 574/757 551/758 636/759 643/760
f 389/761 373/762 622/763 623/764
f 406/765 389/761 623/764 624/766
f 591/710 586/767 645/768 621/711
f 438/769 422/770 625/771 626/772
f 549/773 546/774 633/775 634/776
f 552/777 558/778 639/779 637/780
f 454/781 438/769 626/772 627/782
f 558/778 563/783 640/784 639/779
f 470/785 454/781 627/782 628/786
f 550/787 549/773 634/776 635/788
f 486/789 470/785 628/786 630/790
f 487/791 471/792 629/793 631/794
f 557/795 552/777 637/780 638/796
f 471/792 486/789 630/790 629/793
f 566/797 565/798 641/799 642/800
f 543/801 487/791 631/794 632/802
f 563/783 566/797 642/800 640/784
f 422/770 406/765 624/766 625/771
f 551/758 550/787 635/788 636/759
f 586/767 581/803 644/804 645/768
f 581/803 574/757 643/760 644/804
f 546/774 543/801 632/802 633/775
f 373/762 557/795 638/796 622/763
f 565/798 567/668 564/667 641/799
f 516/755 601/756 647/805 646/806
f 594/703 465/702 646/806 647/805
f 390/807 648/808 650/809 398/810
f 511/624 517/625 648/808 390/807
f 381/811 649/812 652/813 78/814
f 398/810 650/809 649/812 381/811
f 2/815 651/816 510/617 127/616
f 78/814 652/813 651/816 2/815
f 45/185 193/247 217/187 97/190
